{
    "total": 31,
    "currentPage": 1,
    "lastPage": 2,
    "data": [
        {
            "orderId": "111-3262999-0163439",
            "orderDate": "2023-01-05T01:52:17.000Z",
            "deliveryDate": "2023-01-09T14:34:19.000Z",
            "importedDate": "2023-01-09T14:34:24.990Z",
            "itemsPurchased": 1,
            "earliestShipDate": "2023-01-08T07:59:59.000Z",
            "latestShipDate": "2023-01-08T07:59:59.000Z",
            "SKU": [
                "SVH9453311"
            ],
            "FBA": "MFN",
            "dateToSend": "2023-01-09T14:34:25.421Z",
            "status": "Pending",
            "email": "pruteniok@gmail.com",
            "template": null,
            "campaign": "1",
            "sentAt": null
        },
        {
            "orderId": "113-6079129-5243420",
            "orderDate": "2023-01-02T14:17:39.000Z",
            "deliveryDate": "2023-01-09T14:23:52.000Z",
            "importedDate": "2023-01-09T14:23:58.677Z",
            "itemsPurchased": 1,
            "earliestShipDate": "2023-01-10T07:59:59.000Z",
            "latestShipDate": "2023-01-10T07:59:59.000Z",
            "SKU": [
                "SVH3925814"
            ],
            "FBA": "AFN",
            "dateToSend": "2023-01-09T14:23:59.190Z",
            "status": "Complaint",
            "email": "pruteniok@gmail.com",
            "template": null,
            "campaign": "1",
            "sentAt": null
        },
        {
            "orderId": "111-1992791-7020267",
            "orderDate": "2023-01-05T19:57:13.000Z",
            "deliveryDate": "2023-01-09T14:22:56.000Z",
            "importedDate": "2023-01-09T14:23:01.206Z",
            "itemsPurchased": 1,
            "earliestShipDate": "2023-01-10T01:45:00.000Z",
            "latestShipDate": "2023-01-10T01:45:00.000Z",
            "SKU": [
                "EJD1394782CHILD3"
            ],
            "FBA": "AFN",
            "dateToSend": "2023-01-09T14:23:01.549Z",
            "status": "Send",
            "email": "pruteniok@gmail.com",
            "template": null,
            "campaign": "1",
            "sentAt": null
        },
        {
            "orderId": "111-8880318-8077869",
            "orderDate": "2023-01-04T17:21:06.000Z",
            "deliveryDate": "2023-01-09T14:22:01.000Z",
            "importedDate": "2023-01-09T14:22:05.306Z",
            "itemsPurchased": 1,
            "earliestShipDate": "2023-01-12T07:59:59.000Z",
            "latestShipDate": "2023-01-12T07:59:59.000Z",
            "SKU": [
                "TV462047_113130CHILD2"
            ],
            "FBA": "AFN",
            "dateToSend": "2023-04-17T09:43:27.543Z",
            "status": "Delivery",
            "email": "pruteniok@gmail.com",
            "template": "Custom",
            "campaign": "1",
            "sentAt": "2023-04-17T09:48:03.15"
        },
        {
            "orderId": "111-8452468-8253056",
            "orderDate": "2022-12-31T13:16:19.000Z",
            "deliveryDate": "2023-01-09T14:20:33.000Z",
            "importedDate": "2023-01-09T14:20:38.598Z",
            "itemsPurchased": 1,
            "earliestShipDate": "2023-01-14T07:59:59.000Z",
            "latestShipDate": "2023-01-14T07:59:59.000Z",
            "SKU": [
                "SVH9457079"
            ],
            "FBA": "AFN",
            "dateToSend": "2023-01-09T14:20:38.900Z",
            "status": "Open",
            "email": "pruteniok@gmail.com",
            "template": null,
            "campaign": "1",
            "sentAt": null
        },
        {
            "orderId": "114-7247341-5880219",
            "orderDate": "2022-12-29T14:26:27.000Z",
            "deliveryDate": "2023-01-09T14:19:26.000Z",
            "importedDate": "2023-01-09T14:19:33.915Z",
            "itemsPurchased": 1,
            "earliestShipDate": "2023-01-06T08:00:00.000Z",
            "latestShipDate": "2023-01-06T08:00:00.000Z",
            "SKU": [
                "ORG6073597CHILD3"
            ],
            "FBA": "AFN",
            "dateToSend": "2023-01-09T14:19:34.199Z",
            "status": "Pending",
            "email": "pruteniok@gmail.com",
            "template": null,
            "campaign": "1",
            "sentAt": null
        },
        {
            "orderId": "111-5898687-7677802",
            "orderDate": "2023-01-04T03:41:06.000Z",
            "deliveryDate": "2023-01-09T14:19:10.000Z",
            "importedDate": "2023-01-09T14:19:14.616Z",
            "itemsPurchased": 1,
            "earliestShipDate": "2023-02-04T07:59:59.000Z",
            "latestShipDate": "2023-02-04T07:59:59.000Z",
            "SKU": [
                "TV151290"
            ],
            "FBA": "AFN",
            "dateToSend": "2023-01-09T14:19:14.858Z",
            "status": "Pending",
            "email": "pruteniok@gmail.com",
            "template": null,
            "campaign": "1",
            "sentAt": null
        },
        {
            "orderId": "112-7243026-8181036",
            "orderDate": "2023-01-05T22:06:52.000Z",
            "deliveryDate": "2023-01-09T14:11:27.000Z",
            "importedDate": "2023-01-09T14:11:30.511Z",
            "itemsPurchased": 1,
            "earliestShipDate": "2023-01-17T07:59:59.000Z",
            "latestShipDate": "2023-01-17T07:59:59.000Z",
            "SKU": [
                "SVH9400011CHILD1"
            ],
            "FBA": "MFN",
            "dateToSend": "2023-01-09T14:11:30.856Z",
            "status": "Pending",
            "email": "pruteniok@gmail.com",
            "template": null,
            "campaign": "1",
            "sentAt": null
        },
        {
            "orderId": "112-3702649-0470631",
            "orderDate": "2023-01-03T00:54:31.000Z",
            "deliveryDate": "2023-01-09T14:08:00.000Z",
            "importedDate": "2023-01-09T14:08:04.203Z",
            "itemsPurchased": 1,
            "earliestShipDate": "2023-01-07T17:00:00.000Z",
            "latestShipDate": "2023-01-07T17:00:00.000Z",
            "SKU": [
                "EJD6267710"
            ],
            "FBA": "AFN",
            "dateToSend": "2023-01-09T14:08:04.512Z",
            "status": "Pending",
            "email": "pruteniok@gmail.com",
            "template": null,
            "campaign": "1",
            "sentAt": null
        },
        {
            "orderId": "111-0253919-7955410",
            "orderDate": "2023-01-04T16:41:57.000Z",
            "deliveryDate": "2023-01-09T14:04:30.000Z",
            "importedDate": "2023-01-09T14:04:35.388Z",
            "itemsPurchased": 1,
            "earliestShipDate": "2023-01-08T02:00:00.000Z",
            "latestShipDate": "2023-01-08T02:00:00.000Z",
            "SKU": [
                "SPRITA60233"
            ],
            "FBA": "AFN",
            "dateToSend": "2023-01-09T14:04:35.748Z",
            "status": "Pending",
            "email": "pruteniok@gmail.com",
            "template": null,
            "campaign": "1",
            "sentAt": null
        },
        {
            "orderId": "113-7620271-7287465",
            "orderDate": "2023-01-03T16:48:49.000Z",
            "deliveryDate": "2023-01-09T14:03:25.000Z",
            "importedDate": "2023-01-09T14:03:28.883Z",
            "itemsPurchased": 1,
            "earliestShipDate": "2023-01-05T21:27:43.000Z",
            "latestShipDate": "2023-01-05T21:27:43.000Z",
            "SKU": [
                "EJD3837762CHILD2"
            ],
            "FBA": "AFN",
            "dateToSend": "2023-01-09T14:03:29.155Z",
            "status": "Bounced",
            "email": "pruteniok@gmail.com",
            "template": null,
            "campaign": "1",
            "sentAt": null
         },
         {
            "orderId": "112-3840392-1164204",
            "orderDate": "2023-04-17T00:53:30.000Z",
            "deliveryDate": "2022-08-11T12:04:26.000Z",
            "importedDate": "2023-04-17T00:53:30.000Z",
            "itemsPurchased": 1,
            "earliestShipDate": "2022-08-12T06:59:59.000Z",
            "latestShipDate": "2022-08-12T06:59:59.000Z",
            "SKU": [
                "ORG8358475CHILD1"
            ],
            "FBA": "AFN",
            "dateToSend": null,
            "status": null,
            "email": null,
            "template": null,
            "campaign": null,
            "sentAt": null
        },
        {
            "orderId": "113-1578862-1425009",
            "orderDate": "2023-04-17T00:53:30.000Z",
            "deliveryDate": "2022-08-11T12:15:38.000Z",
            "importedDate": "2023-04-17T00:53:30.000Z",
            "itemsPurchased": 1,
            "earliestShipDate": "2022-08-12T06:59:59.000Z",
            "latestShipDate": "2022-08-12T06:59:59.000Z",
            "SKU": [
                "EJD10833CHILD2"
            ],
            "FBA": "AFN",
            "dateToSend": null,
            "status": null,
            "email": null,
            "template": null,
            "campaign": null,
            "sentAt": null
        }
        
   ]
}